{
    "TileMap": [
        {
            "Real_Position_x": -70.0,
            "Real_Position_y": -10.0,
            "Tile_Map_Name": "tile_map",
            "Tile_Map_UnitSize_x": 0.0416666679084301,
            "Tile_Map_UnitSize_y": 0.0625,
            "Tile_Map_Position_x": 0.2916666567325592,
            "Tile_Map_Position_y": 0.25,
            "Tile_Type": 1
        },
        {
            "Real_Position_x": -60.0,
            "Real_Position_y": -10.0,
            "Tile_Map_Name": "tile_map",
            "Tile_Map_UnitSize_x": 0.0416666679084301,
            "Tile_Map_UnitSize_y": 0.0625,
            "Tile_Map_Position_x": 0.3333333432674408,
            "Tile_Map_Position_y": 0.25,
            "Tile_Type": 1
        },
        {
            "Real_Position_x": -50.0,
            "Real_Position_y": -10.0,
            "Tile_Map_Name": "tile_map",
            "Tile_Map_UnitSize_x": 0.0416666679084301,
            "Tile_Map_UnitSize_y": 0.0625,
            "Tile_Map_Position_x": 0.25,
            "Tile_Map_Position_y": 0.3125,
            "Tile_Type": 1
        },
        {
            "Real_Position_x": -40.0,
            "Real_Position_y": -10.0,
            "Tile_Map_Name": "tile_map",
            "Tile_Map_UnitSize_x": 0.0416666679084301,
            "Tile_Map_UnitSize_y": 0.0625,
            "Tile_Map_Position_x": 0.2916666567325592,
            "Tile_Map_Position_y": 0.3125,
            "Tile_Type": 1
        },
        {
            "Real_Position_x": -30.0,
            "Real_Position_y": -10.0,
            "Tile_Map_Name": "tile_map",
            "Tile_Map_UnitSize_x": 0.0416666679084301,
            "Tile_Map_UnitSize_y": 0.0625,
            "Tile_Map_Position_x": 0.3333333432674408,
            "Tile_Map_Position_y": 0.3125,
            "Tile_Type": 1
        },
        {
            "Real_Position_x": -20.0,
            "Real_Position_y": -10.0,
            "Tile_Map_Name": "tile_map",
            "Tile_Map_UnitSize_x": 0.0416666679084301,
            "Tile_Map_UnitSize_y": 0.0625,
            "Tile_Map_Position_x": 0.25,
            "Tile_Map_Position_y": 0.25,
            "Tile_Type": 1
        },
        {
            "Real_Position_x": -10.0,
            "Real_Position_y": -10.0,
            "Tile_Map_Name": "tile_map",
            "Tile_Map_UnitSize_x": 0.0416666679084301,
            "Tile_Map_UnitSize_y": 0.0625,
            "Tile_Map_Position_x": 0.2916666567325592,
            "Tile_Map_Position_y": 0.25,
            "Tile_Type": 1
        },
        {
            "Real_Position_x": 0.0,
            "Real_Position_y": -10.0,
            "Tile_Map_Name": "tile_map",
            "Tile_Map_UnitSize_x": 0.0416666679084301,
            "Tile_Map_UnitSize_y": 0.0625,
            "Tile_Map_Position_x": 0.3333333432674408,
            "Tile_Map_Position_y": 0.25,
            "Tile_Type": 1
        },
        {
            "Real_Position_x": 10.0,
            "Real_Position_y": -10.0,
            "Tile_Map_Name": "tile_map",
            "Tile_Map_UnitSize_x": 0.0416666679084301,
            "Tile_Map_UnitSize_y": 0.0625,
            "Tile_Map_Position_x": 0.25,
            "Tile_Map_Position_y": 0.3125,
            "Tile_Type": 1
        },
        {
            "Real_Position_x": 20.0,
            "Real_Position_y": -10.0,
            "Tile_Map_Name": "tile_map",
            "Tile_Map_UnitSize_x": 0.0416666679084301,
            "Tile_Map_UnitSize_y": 0.0625,
            "Tile_Map_Position_x": 0.2916666567325592,
            "Tile_Map_Position_y": 0.3125,
            "Tile_Type": 1
        },
        {
            "Real_Position_x": 30.0,
            "Real_Position_y": -10.0,
            "Tile_Map_Name": "tile_map",
            "Tile_Map_UnitSize_x": 0.0416666679084301,
            "Tile_Map_UnitSize_y": 0.0625,
            "Tile_Map_Position_x": 0.3333333432674408,
            "Tile_Map_Position_y": 0.3125,
            "Tile_Type": 1
        },
        {
            "Real_Position_x": 40.0,
            "Real_Position_y": -10.0,
            "Tile_Map_Name": "tile_map",
            "Tile_Map_UnitSize_x": 0.0416666679084301,
            "Tile_Map_UnitSize_y": 0.0625,
            "Tile_Map_Position_x": 0.25,
            "Tile_Map_Position_y": 0.25,
            "Tile_Type": 1
        },
        {
            "Real_Position_x": 50.0,
            "Real_Position_y": -10.0,
            "Tile_Map_Name": "tile_map",
            "Tile_Map_UnitSize_x": 0.0416666679084301,
            "Tile_Map_UnitSize_y": 0.0625,
            "Tile_Map_Position_x": 0.2916666567325592,
            "Tile_Map_Position_y": 0.25,
            "Tile_Type": 1
        },
        {
            "Real_Position_x": 60.0,
            "Real_Position_y": -10.0,
            "Tile_Map_Name": "tile_map",
            "Tile_Map_UnitSize_x": 0.0416666679084301,
            "Tile_Map_UnitSize_y": 0.0625,
            "Tile_Map_Position_x": 0.3333333432674408,
            "Tile_Map_Position_y": 0.25,
            "Tile_Type": 1
        },
        {
            "Real_Position_x": 70.0,
            "Real_Position_y": -10.0,
            "Tile_Map_Name": "tile_map",
            "Tile_Map_UnitSize_x": 0.0416666679084301,
            "Tile_Map_UnitSize_y": 0.0625,
            "Tile_Map_Position_x": 0.25,
            "Tile_Map_Position_y": 0.3125,
            "Tile_Type": 1
        },
        {
            "Real_Position_x": 80.0,
            "Real_Position_y": -10.0,
            "Tile_Map_Name": "tile_map",
            "Tile_Map_UnitSize_x": 0.0416666679084301,
            "Tile_Map_UnitSize_y": 0.0625,
            "Tile_Map_Position_x": 0.2916666567325592,
            "Tile_Map_Position_y": 0.3125,
            "Tile_Type": 1
        },
        {
            "Real_Position_x": -200.0,
            "Real_Position_y": -10.0,
            "Tile_Map_Name": "tile_map",
            "Tile_Map_UnitSize_x": 0.0416666679084301,
            "Tile_Map_UnitSize_y": 0.0625,
            "Tile_Map_Position_x": 0.2916666567325592,
            "Tile_Map_Position_y": 0.25,
            "Tile_Type": 1
        },
        {
            "Real_Position_x": -190.0,
            "Real_Position_y": -10.0,
            "Tile_Map_Name": "tile_map",
            "Tile_Map_UnitSize_x": 0.0416666679084301,
            "Tile_Map_UnitSize_y": 0.0625,
            "Tile_Map_Position_x": 0.3333333432674408,
            "Tile_Map_Position_y": 0.25,
            "Tile_Type": 1
        },
        {
            "Real_Position_x": -180.0,
            "Real_Position_y": -10.0,
            "Tile_Map_Name": "tile_map",
            "Tile_Map_UnitSize_x": 0.0416666679084301,
            "Tile_Map_UnitSize_y": 0.0625,
            "Tile_Map_Position_x": 0.25,
            "Tile_Map_Position_y": 0.3125,
            "Tile_Type": 1
        },
        {
            "Real_Position_x": -170.0,
            "Real_Position_y": -10.0,
            "Tile_Map_Name": "tile_map",
            "Tile_Map_UnitSize_x": 0.0416666679084301,
            "Tile_Map_UnitSize_y": 0.0625,
            "Tile_Map_Position_x": 0.2916666567325592,
            "Tile_Map_Position_y": 0.3125,
            "Tile_Type": 1
        },
        {
            "Real_Position_x": -160.0,
            "Real_Position_y": -10.0,
            "Tile_Map_Name": "tile_map",
            "Tile_Map_UnitSize_x": 0.0416666679084301,
            "Tile_Map_UnitSize_y": 0.0625,
            "Tile_Map_Position_x": 0.3333333432674408,
            "Tile_Map_Position_y": 0.3125,
            "Tile_Type": 1
        },
        {
            "Real_Position_x": -150.0,
            "Real_Position_y": -10.0,
            "Tile_Map_Name": "tile_map",
            "Tile_Map_UnitSize_x": 0.0416666679084301,
            "Tile_Map_UnitSize_y": 0.0625,
            "Tile_Map_Position_x": 0.25,
            "Tile_Map_Position_y": 0.25,
            "Tile_Type": 1
        },
        {
            "Real_Position_x": -140.0,
            "Real_Position_y": -10.0,
            "Tile_Map_Name": "tile_map",
            "Tile_Map_UnitSize_x": 0.0416666679084301,
            "Tile_Map_UnitSize_y": 0.0625,
            "Tile_Map_Position_x": 0.2916666567325592,
            "Tile_Map_Position_y": 0.25,
            "Tile_Type": 1
        },
        {
            "Real_Position_x": -110.0,
            "Real_Position_y": 30.0,
            "Tile_Map_Name": "tile_map",
            "Tile_Map_UnitSize_x": 0.0416666679084301,
            "Tile_Map_UnitSize_y": 0.0625,
            "Tile_Map_Position_x": 0.2916666567325592,
            "Tile_Map_Position_y": 0.25,
            "Tile_Type": 1
        },
        {
            "Real_Position_x": -30.0,
            "Real_Position_y": 50.0,
            "Tile_Map_Name": "tile_map",
            "Tile_Map_UnitSize_x": 0.0416666679084301,
            "Tile_Map_UnitSize_y": 0.0625,
            "Tile_Map_Position_x": 0.2916666567325592,
            "Tile_Map_Position_y": 0.25,
            "Tile_Type": 1
        },
        {
            "Real_Position_x": -20.0,
            "Real_Position_y": 50.0,
            "Tile_Map_Name": "tile_map",
            "Tile_Map_UnitSize_x": 0.0416666679084301,
            "Tile_Map_UnitSize_y": 0.0625,
            "Tile_Map_Position_x": 0.3333333432674408,
            "Tile_Map_Position_y": 0.25,
            "Tile_Type": 1
        },
        {
            "Real_Position_x": -10.0,
            "Real_Position_y": 50.0,
            "Tile_Map_Name": "tile_map",
            "Tile_Map_UnitSize_x": 0.0416666679084301,
            "Tile_Map_UnitSize_y": 0.0625,
            "Tile_Map_Position_x": 0.25,
            "Tile_Map_Position_y": 0.3125,
            "Tile_Type": 1
        },
        {
            "Real_Position_x": 0.0,
            "Real_Position_y": 50.0,
            "Tile_Map_Name": "tile_map",
            "Tile_Map_UnitSize_x": 0.0416666679084301,
            "Tile_Map_UnitSize_y": 0.0625,
            "Tile_Map_Position_x": 0.2916666567325592,
            "Tile_Map_Position_y": 0.3125,
            "Tile_Type": 1
        },
        {
            "Real_Position_x": 10.0,
            "Real_Position_y": 50.0,
            "Tile_Map_Name": "tile_map",
            "Tile_Map_UnitSize_x": 0.0416666679084301,
            "Tile_Map_UnitSize_y": 0.0625,
            "Tile_Map_Position_x": 0.3333333432674408,
            "Tile_Map_Position_y": 0.3125,
            "Tile_Type": 1
        },
        {
            "Real_Position_x": 20.0,
            "Real_Position_y": 50.0,
            "Tile_Map_Name": "tile_map",
            "Tile_Map_UnitSize_x": 0.0416666679084301,
            "Tile_Map_UnitSize_y": 0.0625,
            "Tile_Map_Position_x": 0.25,
            "Tile_Map_Position_y": 0.25,
            "Tile_Type": 1
        },
        {
            "Real_Position_x": 30.0,
            "Real_Position_y": 50.0,
            "Tile_Map_Name": "tile_map",
            "Tile_Map_UnitSize_x": 0.0416666679084301,
            "Tile_Map_UnitSize_y": 0.0625,
            "Tile_Map_Position_x": 0.2916666567325592,
            "Tile_Map_Position_y": 0.25,
            "Tile_Type": 1
        },
        {
            "Real_Position_x": 40.0,
            "Real_Position_y": 50.0,
            "Tile_Map_Name": "tile_map",
            "Tile_Map_UnitSize_x": 0.0416666679084301,
            "Tile_Map_UnitSize_y": 0.0625,
            "Tile_Map_Position_x": 0.3333333432674408,
            "Tile_Map_Position_y": 0.25,
            "Tile_Type": 1
        },
        {
            "Real_Position_x": 100.0,
            "Real_Position_y": 30.0,
            "Tile_Map_Name": "tile_map",
            "Tile_Map_UnitSize_x": 0.0416666679084301,
            "Tile_Map_UnitSize_y": 0.0625,
            "Tile_Map_Position_x": 0.2916666567325592,
            "Tile_Map_Position_y": 0.25,
            "Tile_Type": 1
        },
        {
            "Real_Position_x": 110.0,
            "Real_Position_y": 30.0,
            "Tile_Map_Name": "tile_map",
            "Tile_Map_UnitSize_x": 0.0416666679084301,
            "Tile_Map_UnitSize_y": 0.0625,
            "Tile_Map_Position_x": 0.3333333432674408,
            "Tile_Map_Position_y": 0.25,
            "Tile_Type": 1
        },
        {
            "Real_Position_x": 120.0,
            "Real_Position_y": 30.0,
            "Tile_Map_Name": "tile_map",
            "Tile_Map_UnitSize_x": 0.0416666679084301,
            "Tile_Map_UnitSize_y": 0.0625,
            "Tile_Map_Position_x": 0.25,
            "Tile_Map_Position_y": 0.25,
            "Tile_Type": 1
        },
        {
            "Real_Position_x": 140.0,
            "Real_Position_y": -10.0,
            "Tile_Map_Name": "tile_map",
            "Tile_Map_UnitSize_x": 0.0416666679084301,
            "Tile_Map_UnitSize_y": 0.0625,
            "Tile_Map_Position_x": 0.25,
            "Tile_Map_Position_y": 0.25,
            "Tile_Type": 1
        },
        {
            "Real_Position_x": 150.0,
            "Real_Position_y": -10.0,
            "Tile_Map_Name": "tile_map",
            "Tile_Map_UnitSize_x": 0.0416666679084301,
            "Tile_Map_UnitSize_y": 0.0625,
            "Tile_Map_Position_x": 0.2916666567325592,
            "Tile_Map_Position_y": 0.25,
            "Tile_Type": 1
        },
        {
            "Real_Position_x": 160.0,
            "Real_Position_y": -10.0,
            "Tile_Map_Name": "tile_map",
            "Tile_Map_UnitSize_x": 0.0416666679084301,
            "Tile_Map_UnitSize_y": 0.0625,
            "Tile_Map_Position_x": 0.3333333432674408,
            "Tile_Map_Position_y": 0.25,
            "Tile_Type": 1
        },
        {
            "Real_Position_x": 170.0,
            "Real_Position_y": -10.0,
            "Tile_Map_Name": "tile_map",
            "Tile_Map_UnitSize_x": 0.0416666679084301,
            "Tile_Map_UnitSize_y": 0.0625,
            "Tile_Map_Position_x": 0.25,
            "Tile_Map_Position_y": 0.3125,
            "Tile_Type": 1
        },
        {
            "Real_Position_x": 180.0,
            "Real_Position_y": -10.0,
            "Tile_Map_Name": "tile_map",
            "Tile_Map_UnitSize_x": 0.0416666679084301,
            "Tile_Map_UnitSize_y": 0.0625,
            "Tile_Map_Position_x": 0.25,
            "Tile_Map_Position_y": 0.3125,
            "Tile_Type": 1
        },
        {
            "Real_Position_x": 190.0,
            "Real_Position_y": -10.0,
            "Tile_Map_Name": "tile_map",
            "Tile_Map_UnitSize_x": 0.0416666679084301,
            "Tile_Map_UnitSize_y": 0.0625,
            "Tile_Map_Position_x": 0.2916666567325592,
            "Tile_Map_Position_y": 0.3125,
            "Tile_Type": 1
        },
        {
            "Real_Position_x": 200.0,
            "Real_Position_y": -10.0,
            "Tile_Map_Name": "tile_map",
            "Tile_Map_UnitSize_x": 0.0416666679084301,
            "Tile_Map_UnitSize_y": 0.0625,
            "Tile_Map_Position_x": 0.3333333432674408,
            "Tile_Map_Position_y": 0.3125,
            "Tile_Type": 1
        },
        {
            "Real_Position_x": 210.0,
            "Real_Position_y": -10.0,
            "Tile_Map_Name": "tile_map",
            "Tile_Map_UnitSize_x": 0.0416666679084301,
            "Tile_Map_UnitSize_y": 0.0625,
            "Tile_Map_Position_x": 0.25,
            "Tile_Map_Position_y": 0.3125,
            "Tile_Type": 1
        },
        {
            "Real_Position_x": 220.0,
            "Real_Position_y": -10.0,
            "Tile_Map_Name": "tile_map",
            "Tile_Map_UnitSize_x": 0.0416666679084301,
            "Tile_Map_UnitSize_y": 0.0625,
            "Tile_Map_Position_x": 0.2916666567325592,
            "Tile_Map_Position_y": 0.3125,
            "Tile_Type": 1
        },
        {
            "Real_Position_x": 90.0,
            "Real_Position_y": -10.0,
            "Tile_Map_Name": "tile_map",
            "Tile_Map_UnitSize_x": 0.0416666679084301,
            "Tile_Map_UnitSize_y": 0.0625,
            "Tile_Map_Position_x": 0.2916666567325592,
            "Tile_Map_Position_y": 0.4375,
            "Tile_Type": 1
        },
        {
            "Real_Position_x": 130.0,
            "Real_Position_y": -10.0,
            "Tile_Map_Name": "tile_map",
            "Tile_Map_UnitSize_x": 0.0416666679084301,
            "Tile_Map_UnitSize_y": 0.0625,
            "Tile_Map_Position_x": 0.25,
            "Tile_Map_Position_y": 0.4375,
            "Tile_Type": 1
        },
        {
            "Real_Position_x": 90.0,
            "Real_Position_y": -0.0,
            "Tile_Map_Name": "tile_map",
            "Tile_Map_UnitSize_x": 0.0416666679084301,
            "Tile_Map_UnitSize_y": 0.0625,
            "Tile_Map_Position_x": 0.25,
            "Tile_Map_Position_y": 0.375,
            "Tile_Type": 0
        },
        {
            "Real_Position_x": 90.0,
            "Real_Position_y": 10.0,
            "Tile_Map_Name": "tile_map",
            "Tile_Map_UnitSize_x": 0.0416666679084301,
            "Tile_Map_UnitSize_y": 0.0625,
            "Tile_Map_Position_x": 0.2916666567325592,
            "Tile_Map_Position_y": 0.375,
            "Tile_Type": 0
        },
        {
            "Real_Position_x": 90.0,
            "Real_Position_y": 20.0,
            "Tile_Map_Name": "tile_map",
            "Tile_Map_UnitSize_x": 0.0416666679084301,
            "Tile_Map_UnitSize_y": 0.0625,
            "Tile_Map_Position_x": 0.25,
            "Tile_Map_Position_y": 0.375,
            "Tile_Type": 0
        },
        {
            "Real_Position_x": 130.0,
            "Real_Position_y": 0.0,
            "Tile_Map_Name": "tile_map",
            "Tile_Map_UnitSize_x": 0.0416666679084301,
            "Tile_Map_UnitSize_y": 0.0625,
            "Tile_Map_Position_x": 0.3333333432674408,
            "Tile_Map_Position_y": 0.4375,
            "Tile_Type": 0
        },
        {
            "Real_Position_x": 130.0,
            "Real_Position_y": 10.0,
            "Tile_Map_Name": "tile_map",
            "Tile_Map_UnitSize_x": 0.0416666679084301,
            "Tile_Map_UnitSize_y": 0.0625,
            "Tile_Map_Position_x": 0.3333333432674408,
            "Tile_Map_Position_y": 0.375,
            "Tile_Type": 0
        },
        {
            "Real_Position_x": 130.0,
            "Real_Position_y": 20.0,
            "Tile_Map_Name": "tile_map",
            "Tile_Map_UnitSize_x": 0.0416666679084301,
            "Tile_Map_UnitSize_y": 0.0625,
            "Tile_Map_Position_x": 0.3333333432674408,
            "Tile_Map_Position_y": 0.4375,
            "Tile_Type": 0
        },
        {
            "Real_Position_x": 230.0,
            "Real_Position_y": -10.0,
            "Tile_Map_Name": "tile_map",
            "Tile_Map_UnitSize_x": 0.0416666679084301,
            "Tile_Map_UnitSize_y": 0.0625,
            "Tile_Map_Position_x": 0.2916666567325592,
            "Tile_Map_Position_y": 0.5,
            "Tile_Type": 1
        },
        {
            "Real_Position_x": 50.0,
            "Real_Position_y": 50.0,
            "Tile_Map_Name": "tile_map",
            "Tile_Map_UnitSize_x": 0.0416666679084301,
            "Tile_Map_UnitSize_y": 0.0625,
            "Tile_Map_Position_x": 0.2916666567325592,
            "Tile_Map_Position_y": 0.5,
            "Tile_Type": 1
        },
        {
            "Real_Position_x": -90.0,
            "Real_Position_y": 30.0,
            "Tile_Map_Name": "tile_map",
            "Tile_Map_UnitSize_x": 0.0416666679084301,
            "Tile_Map_UnitSize_y": 0.0625,
            "Tile_Map_Position_x": 0.2916666567325592,
            "Tile_Map_Position_y": 0.5,
            "Tile_Type": 1
        },
        {
            "Real_Position_x": -100.0,
            "Real_Position_y": 30.0,
            "Tile_Map_Name": "tile_map",
            "Tile_Map_UnitSize_x": 0.0416666679084301,
            "Tile_Map_UnitSize_y": 0.0625,
            "Tile_Map_Position_x": 0.2916666567325592,
            "Tile_Map_Position_y": 0.25,
            "Tile_Type": 1
        },
        {
            "Real_Position_x": -130.0,
            "Real_Position_y": -10.0,
            "Tile_Map_Name": "tile_map",
            "Tile_Map_UnitSize_x": 0.0416666679084301,
            "Tile_Map_UnitSize_y": 0.0625,
            "Tile_Map_Position_x": 0.2916666567325592,
            "Tile_Map_Position_y": 0.5,
            "Tile_Type": 1
        },
        {
            "Real_Position_x": -210.0,
            "Real_Position_y": -10.0,
            "Tile_Map_Name": "tile_map",
            "Tile_Map_UnitSize_x": 0.0416666679084301,
            "Tile_Map_UnitSize_y": 0.0625,
            "Tile_Map_Position_x": 0.25,
            "Tile_Map_Position_y": 0.5,
            "Tile_Type": 1
        },
        {
            "Real_Position_x": -120.0,
            "Real_Position_y": 30.0,
            "Tile_Map_Name": "tile_map",
            "Tile_Map_UnitSize_x": 0.0416666679084301,
            "Tile_Map_UnitSize_y": 0.0625,
            "Tile_Map_Position_x": 0.25,
            "Tile_Map_Position_y": 0.5,
            "Tile_Type": 1
        },
        {
            "Real_Position_x": -80.0,
            "Real_Position_y": -10.0,
            "Tile_Map_Name": "tile_map",
            "Tile_Map_UnitSize_x": 0.0416666679084301,
            "Tile_Map_UnitSize_y": 0.0625,
            "Tile_Map_Position_x": 0.25,
            "Tile_Map_Position_y": 0.5,
            "Tile_Type": 1
        },
        {
            "Real_Position_x": -40.0,
            "Real_Position_y": 50.0,
            "Tile_Map_Name": "tile_map",
            "Tile_Map_UnitSize_x": 0.0416666679084301,
            "Tile_Map_UnitSize_y": 0.0625,
            "Tile_Map_Position_x": 0.25,
            "Tile_Map_Position_y": 0.5,
            "Tile_Type": 1
        },
        {
            "Real_Position_x": 90.0,
            "Real_Position_y": 30.0,
            "Tile_Map_Name": "tile_map",
            "Tile_Map_UnitSize_x": 0.0416666679084301,
            "Tile_Map_UnitSize_y": 0.0625,
            "Tile_Map_Position_x": 0.25,
            "Tile_Map_Position_y": 0.5,
            "Tile_Type": 0
        },
        {
            "Real_Position_x": 130.0,
            "Real_Position_y": 30.0,
            "Tile_Map_Name": "tile_map",
            "Tile_Map_UnitSize_x": 0.0416666679084301,
            "Tile_Map_UnitSize_y": 0.0625,
            "Tile_Map_Position_x": 0.2916666567325592,
            "Tile_Map_Position_y": 0.5,
            "Tile_Type": 0
        }
    ]
}