{
    "Sound": [
        {
            "Name": "asset/Sound/lose.wav"
        },
        {
            "Name": "asset/Sound/background.mp3"
        },
        {
            "Name": "asset/Sound/Gun_shot.mp3"
        },
        {
            "Name": "asset/Sound/gun_fire.wav"
        },
        {
            "Name": "asset/Sound/gun_fire3.wav"
        },
        {
            "Name": "asset/Sound/player_jump.wav"
        },
        {
            "Name": "asset/Sound/player_landing.mp3"
        },
        {
            "Name": "asset/Sound/item_pickup.wav"
        },
        {
            "Name": "asset/Sound/axe_throw.wav"
        },
        {
            "Name": "asset/Sound/game_background.wav"
        },
        {
            "Name": "asset/Sound/player_die.wav"
        },
        {
            "Name": "asset/Sound/player_respawn.wav"
        },
        {
            "Name": "asset/Sound/Score_exhibited.wav"
        },
        {
            "Name": "asset/Sound/fanfare_score.wav"
        }
    ]
}