info face="Press Start 2P" size=32 bold=0 italic=0 charset="" unicode=1 stretchH=100 smooth=1 aa=1 padding=0,0,0,0 spacing=1,1 outline=0
common lineHeight=32 base=23 scaleW=256 scaleH=256 pages=1 packed=0 alphaChnl=0 redChnl=4 greenChnl=4 blueChnl=4
page id=0 file="PressStart2P_0.png"
chars count=126
char id=0    x=253   y=0     width=1     height=1     xoffset=0     yoffset=0     xadvance=0     page=0  chnl=15
char id=13   x=69    y=105   width=3     height=1     xoffset=-1    yoffset=31    xadvance=23    page=0  chnl=15
char id=32   x=73    y=105   width=3     height=1     xoffset=-1    yoffset=31    xadvance=23    page=0  chnl=15
char id=33   x=218   y=105   width=10    height=20    xoffset=5     yoffset=0     xadvance=23    page=0  chnl=15
char id=34   x=182   y=156   width=16    height=9     xoffset=2     yoffset=0     xadvance=23    page=0  chnl=15
char id=35   x=161   y=0     width=22    height=20    xoffset=-1    yoffset=0     xadvance=23    page=0  chnl=15
char id=36   x=184   y=0     width=22    height=20    xoffset=-1    yoffset=0     xadvance=23    page=0  chnl=15
char id=37   x=207   y=0     width=22    height=20    xoffset=-1    yoffset=0     xadvance=23    page=0  chnl=15
char id=38   x=230   y=0     width=22    height=20    xoffset=-1    yoffset=0     xadvance=23    page=0  chnl=15
char id=39   x=247   y=141   width=7     height=9     xoffset=5     yoffset=0     xadvance=23    page=0  chnl=15
char id=40   x=148   y=105   width=13    height=20    xoffset=5     yoffset=0     xadvance=23    page=0  chnl=15
char id=41   x=162   y=105   width=13    height=20    xoffset=2     yoffset=0     xadvance=23    page=0  chnl=15
char id=42   x=218   y=126   width=22    height=14    xoffset=-1    yoffset=4     xadvance=23    page=0  chnl=15
char id=43   x=227   y=141   width=19    height=14    xoffset=2     yoffset=3     xadvance=23    page=0  chnl=15
char id=44   x=199   y=156   width=10    height=9     xoffset=2     yoffset=14    xadvance=23    page=0  chnl=15
char id=45   x=66    y=175   width=19    height=3     xoffset=2     yoffset=9     xadvance=23    page=0  chnl=15
char id=46   x=11    y=177   width=7     height=6     xoffset=5     yoffset=14    xadvance=23    page=0  chnl=15
char id=47   x=184   y=21    width=22    height=20    xoffset=-1    yoffset=0     xadvance=23    page=0  chnl=15
char id=48   x=0     y=24    width=22    height=20    xoffset=-1    yoffset=0     xadvance=23    page=0  chnl=15
char id=49   x=132   y=84    width=19    height=20    xoffset=2     yoffset=0     xadvance=23    page=0  chnl=15
char id=50   x=0     y=45    width=22    height=20    xoffset=-1    yoffset=0     xadvance=23    page=0  chnl=15
char id=51   x=23    y=45    width=22    height=20    xoffset=-1    yoffset=0     xadvance=23    page=0  chnl=15
char id=52   x=46    y=45    width=22    height=20    xoffset=-1    yoffset=0     xadvance=23    page=0  chnl=15
char id=53   x=69    y=42    width=22    height=20    xoffset=-1    yoffset=0     xadvance=23    page=0  chnl=15
char id=54   x=92    y=42    width=22    height=20    xoffset=-1    yoffset=0     xadvance=23    page=0  chnl=15
char id=55   x=115   y=42    width=22    height=20    xoffset=-1    yoffset=0     xadvance=23    page=0  chnl=15
char id=56   x=138   y=42    width=22    height=20    xoffset=-1    yoffset=0     xadvance=23    page=0  chnl=15
char id=57   x=161   y=42    width=22    height=20    xoffset=-1    yoffset=0     xadvance=23    page=0  chnl=15
char id=58   x=241   y=126   width=7     height=14    xoffset=5     yoffset=3     xadvance=23    page=0  chnl=15
char id=59   x=115   y=126   width=10    height=17    xoffset=2     yoffset=3     xadvance=23    page=0  chnl=15
char id=60   x=100   y=105   width=16    height=20    xoffset=2     yoffset=0     xadvance=23    page=0  chnl=15
char id=61   x=116   y=159   width=22    height=9     xoffset=-1    yoffset=6     xadvance=23    page=0  chnl=15
char id=62   x=117   y=105   width=16    height=20    xoffset=2     yoffset=0     xadvance=23    page=0  chnl=15
char id=63   x=0     y=66    width=22    height=20    xoffset=-1    yoffset=0     xadvance=23    page=0  chnl=15
char id=64   x=23    y=66    width=22    height=20    xoffset=-1    yoffset=0     xadvance=23    page=0  chnl=15
char id=65   x=46    y=66    width=22    height=20    xoffset=-1    yoffset=0     xadvance=23    page=0  chnl=15
char id=66   x=69    y=63    width=22    height=20    xoffset=-1    yoffset=0     xadvance=23    page=0  chnl=15
char id=67   x=92    y=63    width=22    height=20    xoffset=-1    yoffset=0     xadvance=23    page=0  chnl=15
char id=68   x=115   y=63    width=22    height=20    xoffset=-1    yoffset=0     xadvance=23    page=0  chnl=15
char id=69   x=138   y=63    width=22    height=20    xoffset=-1    yoffset=0     xadvance=23    page=0  chnl=15
char id=70   x=161   y=63    width=22    height=20    xoffset=-1    yoffset=0     xadvance=23    page=0  chnl=15
char id=71   x=184   y=63    width=22    height=20    xoffset=-1    yoffset=0     xadvance=23    page=0  chnl=15
char id=72   x=207   y=63    width=22    height=20    xoffset=-1    yoffset=0     xadvance=23    page=0  chnl=15
char id=73   x=192   y=84    width=19    height=20    xoffset=2     yoffset=0     xadvance=23    page=0  chnl=15
char id=74   x=230   y=63    width=22    height=20    xoffset=-1    yoffset=0     xadvance=23    page=0  chnl=15
char id=75   x=0     y=87    width=22    height=20    xoffset=-1    yoffset=0     xadvance=23    page=0  chnl=15
char id=76   x=0     y=108   width=19    height=20    xoffset=2     yoffset=0     xadvance=23    page=0  chnl=15
char id=77   x=23    y=87    width=22    height=20    xoffset=-1    yoffset=0     xadvance=23    page=0  chnl=15
char id=78   x=46    y=87    width=22    height=20    xoffset=-1    yoffset=0     xadvance=23    page=0  chnl=15
char id=79   x=69    y=84    width=22    height=20    xoffset=-1    yoffset=0     xadvance=23    page=0  chnl=15
char id=80   x=69    y=0     width=22    height=20    xoffset=-1    yoffset=0     xadvance=23    page=0  chnl=15
char id=81   x=92    y=0     width=22    height=20    xoffset=-1    yoffset=0     xadvance=23    page=0  chnl=15
char id=82   x=115   y=0     width=22    height=20    xoffset=-1    yoffset=0     xadvance=23    page=0  chnl=15
char id=83   x=23    y=24    width=22    height=20    xoffset=-1    yoffset=0     xadvance=23    page=0  chnl=15
char id=84   x=232   y=84    width=19    height=20    xoffset=2     yoffset=0     xadvance=23    page=0  chnl=15
char id=85   x=46    y=24    width=22    height=20    xoffset=-1    yoffset=0     xadvance=23    page=0  chnl=15
char id=86   x=92    y=21    width=22    height=20    xoffset=-1    yoffset=0     xadvance=23    page=0  chnl=15
char id=87   x=138   y=21    width=22    height=20    xoffset=-1    yoffset=0     xadvance=23    page=0  chnl=15
char id=88   x=161   y=21    width=22    height=20    xoffset=-1    yoffset=0     xadvance=23    page=0  chnl=15
char id=89   x=172   y=84    width=19    height=20    xoffset=2     yoffset=0     xadvance=23    page=0  chnl=15
char id=90   x=207   y=21    width=22    height=20    xoffset=-1    yoffset=0     xadvance=23    page=0  chnl=15
char id=91   x=176   y=105   width=13    height=20    xoffset=5     yoffset=0     xadvance=23    page=0  chnl=15
char id=92   x=69    y=21    width=22    height=20    xoffset=-1    yoffset=0     xadvance=23    page=0  chnl=15
char id=93   x=134   y=105   width=13    height=20    xoffset=2     yoffset=0     xadvance=23    page=0  chnl=15
char id=94   x=221   y=156   width=16    height=6     xoffset=2     yoffset=0     xadvance=23    page=0  chnl=15
char id=95   x=43    y=175   width=22    height=3     xoffset=-1    yoffset=20    xadvance=23    page=0  chnl=15
char id=96   x=19    y=177   width=7     height=6     xoffset=8     yoffset=0     xadvance=23    page=0  chnl=15
char id=97   x=138   y=141   width=22    height=14    xoffset=-1    yoffset=6     xadvance=23    page=0  chnl=15
char id=98   x=230   y=42    width=22    height=20    xoffset=-1    yoffset=0     xadvance=23    page=0  chnl=15
char id=99   x=184   y=141   width=22    height=14    xoffset=-1    yoffset=6     xadvance=23    page=0  chnl=15
char id=100  x=207   y=42    width=22    height=20    xoffset=-1    yoffset=0     xadvance=23    page=0  chnl=15
char id=101  x=126   y=126   width=22    height=14    xoffset=-1    yoffset=6     xadvance=23    page=0  chnl=15
char id=102  x=152   y=84    width=19    height=20    xoffset=2     yoffset=0     xadvance=23    page=0  chnl=15
char id=103  x=23    y=129   width=22    height=17    xoffset=-1    yoffset=6     xadvance=23    page=0  chnl=15
char id=104  x=115   y=21    width=22    height=20    xoffset=-1    yoffset=0     xadvance=23    page=0  chnl=15
char id=105  x=92    y=84    width=19    height=20    xoffset=2     yoffset=0     xadvance=23    page=0  chnl=15
char id=106  x=52    y=0     width=16    height=23    xoffset=2     yoffset=0     xadvance=23    page=0  chnl=15
char id=107  x=138   y=0     width=22    height=20    xoffset=-1    yoffset=0     xadvance=23    page=0  chnl=15
char id=108  x=112   y=84    width=19    height=20    xoffset=2     yoffset=0     xadvance=23    page=0  chnl=15
char id=109  x=149   y=126   width=22    height=14    xoffset=-1    yoffset=6     xadvance=23    page=0  chnl=15
char id=110  x=172   y=126   width=22    height=14    xoffset=-1    yoffset=6     xadvance=23    page=0  chnl=15
char id=111  x=195   y=126   width=22    height=14    xoffset=-1    yoffset=6     xadvance=23    page=0  chnl=15
char id=112  x=0     y=129   width=22    height=17    xoffset=-1    yoffset=6     xadvance=23    page=0  chnl=15
char id=113  x=46    y=129   width=22    height=17    xoffset=-1    yoffset=6     xadvance=23    page=0  chnl=15
char id=114  x=20    y=162   width=19    height=14    xoffset=2     yoffset=6     xadvance=23    page=0  chnl=15
char id=115  x=0     y=147   width=22    height=14    xoffset=-1    yoffset=6     xadvance=23    page=0  chnl=15
char id=116  x=212   y=84    width=19    height=20    xoffset=2     yoffset=0     xadvance=23    page=0  chnl=15
char id=117  x=46    y=147   width=22    height=14    xoffset=-1    yoffset=6     xadvance=23    page=0  chnl=15
char id=118  x=207   y=141   width=19    height=14    xoffset=2     yoffset=6     xadvance=23    page=0  chnl=15
char id=119  x=69    y=147   width=22    height=14    xoffset=-1    yoffset=6     xadvance=23    page=0  chnl=15
char id=120  x=115   y=144   width=22    height=14    xoffset=-1    yoffset=6     xadvance=23    page=0  chnl=15
char id=121  x=69    y=129   width=22    height=17    xoffset=-1    yoffset=6     xadvance=23    page=0  chnl=15
char id=122  x=161   y=141   width=22    height=14    xoffset=-1    yoffset=6     xadvance=23    page=0  chnl=15
char id=123  x=190   y=105   width=13    height=20    xoffset=5     yoffset=0     xadvance=23    page=0  chnl=15
char id=124  x=240   y=105   width=7     height=20    xoffset=8     yoffset=0     xadvance=23    page=0  chnl=15
char id=125  x=204   y=105   width=13    height=20    xoffset=2     yoffset=0     xadvance=23    page=0  chnl=15
char id=126  x=139   y=156   width=22    height=9     xoffset=-1    yoffset=5     xadvance=23    page=0  chnl=15
char id=127  x=238   y=156   width=16    height=6     xoffset=2     yoffset=14    xadvance=23    page=0  chnl=15
char id=160  x=252   y=84    width=3     height=1     xoffset=-1    yoffset=31    xadvance=23    page=0  chnl=15
char id=161  x=229   y=105   width=10    height=20    xoffset=5     yoffset=0     xadvance=23    page=0  chnl=15
char id=162  x=230   y=21    width=22    height=20    xoffset=-1    yoffset=0     xadvance=23    page=0  chnl=15
char id=163  x=184   y=42    width=22    height=20    xoffset=-1    yoffset=0     xadvance=23    page=0  chnl=15
char id=164  x=0     y=162   width=19    height=14    xoffset=2     yoffset=4     xadvance=23    page=0  chnl=15
char id=165  x=20    y=108   width=19    height=20    xoffset=2     yoffset=0     xadvance=23    page=0  chnl=15
char id=166  x=248   y=105   width=7     height=20    xoffset=8     yoffset=0     xadvance=23    page=0  chnl=15
char id=167  x=40    y=108   width=19    height=20    xoffset=2     yoffset=0     xadvance=23    page=0  chnl=15
char id=168  x=123   y=169   width=16    height=3     xoffset=2     yoffset=0     xadvance=23    page=0  chnl=15
char id=169  x=26    y=0     width=25    height=23    xoffset=-1    yoffset=0     xadvance=23    page=0  chnl=15
char id=170  x=40    y=162   width=16    height=12    xoffset=2     yoffset=0     xadvance=23    page=0  chnl=15
char id=171  x=92    y=144   width=22    height=14    xoffset=-1    yoffset=4     xadvance=23    page=0  chnl=15
char id=172  x=162   y=156   width=19    height=9     xoffset=2     yoffset=6     xadvance=23    page=0  chnl=15
char id=173  x=86    y=175   width=19    height=3     xoffset=2     yoffset=9     xadvance=23    page=0  chnl=15
char id=174  x=0     y=0     width=25    height=23    xoffset=-1    yoffset=0     xadvance=23    page=0  chnl=15
char id=175  x=106   y=171   width=16    height=3     xoffset=2     yoffset=0     xadvance=23    page=0  chnl=15
char id=176  x=210   y=156   width=10    height=9     xoffset=5     yoffset=0     xadvance=23    page=0  chnl=15
char id=177  x=60    y=108   width=19    height=20    xoffset=2     yoffset=0     xadvance=23    page=0  chnl=15
char id=178  x=74    y=162   width=13    height=12    xoffset=5     yoffset=0     xadvance=23    page=0  chnl=15
char id=179  x=88    y=162   width=13    height=12    xoffset=5     yoffset=0     xadvance=23    page=0  chnl=15
char id=180  x=27    y=177   width=7     height=6     xoffset=8     yoffset=0     xadvance=23    page=0  chnl=15
char id=181  x=92    y=126   width=22    height=17    xoffset=-1    yoffset=6     xadvance=23    page=0  chnl=15
char id=182  x=80    y=105   width=19    height=20    xoffset=2     yoffset=0     xadvance=23    page=0  chnl=15
char id=183  x=35    y=177   width=7     height=6     xoffset=5     yoffset=8     xadvance=23    page=0  chnl=15
char id=184  x=0     y=177   width=10    height=6     xoffset=5     yoffset=17    xadvance=23    page=0  chnl=15
char id=185  x=102   y=159   width=13    height=11    xoffset=5     yoffset=0     xadvance=23    page=0  chnl=15
char id=186  x=57    y=162   width=16    height=12    xoffset=2     yoffset=0     xadvance=23    page=0  chnl=15
char id=187  x=23    y=147   width=22    height=14    xoffset=-1    yoffset=4     xadvance=23    page=0  chnl=15
